{
  "annotations": {
    "list": [
      {
        "builtIn": 1,
        "datasource": {
          "type": "grafana",
          "uid": "-- Grafana --"
        },
        "enable": true,
        "hide": true,
        "iconColor": "rgba(0, 211, 255, 1)",
        "name": "Annotations & Alerts",
        "target": {
          "limit": 100,
          "matchAny": false,
          "tags": [],
          "type": "dashboard"
        },
        "type": "dashboard"
      }
    ]
  },
  "editable": true,
  "fiscalYearStartMonth": 0,
  "graphTooltip": 0,
  "id": 5427,
  "iteration": 1684945576800,
  "links": [],
  "liveNow": false,
  "panels": [
    {
      "datasource": {
        "type": "mysql",
        "uid": "VGpHWV5Vk"
      },
      "fieldConfig": {
        "defaults": {
          "color": {
            "mode": "palette-classic"
          },
          "custom": {
            "axisLabel": "pilots / hour",
            "axisPlacement": "auto",
            "barAlignment": 0,
            "drawStyle": "line",
            "fillOpacity": 20,
            "gradientMode": "none",
            "hideFrom": {
              "legend": false,
              "tooltip": false,
              "viz": false
            },
            "lineInterpolation": "linear",
            "lineWidth": 1,
            "pointSize": 5,
            "scaleDistribution": {
              "type": "linear"
            },
            "showPoints": "auto",
            "spanNulls": false,
            "stacking": {
              "group": "A",
              "mode": "normal"
            },
            "thresholdsStyle": {
              "mode": "off"
            }
          },
          "mappings": [],
          "thresholds": {
            "mode": "absolute",
            "steps": [
              {
                "color": "green",
                "value": null
              },
              {
                "color": "red",
                "value": 80
              }
            ]
          },
          "unit": "si:"
        },
        "overrides": []
      },
      "gridPos": {
        "h": 10,
        "w": 12,
        "x": 0,
        "y": 0
      },
      "id": 2,
      "options": {
        "legend": {
          "calcs": [
            "max",
            "mean",
            "sum"
          ],
          "displayMode": "table",
          "placement": "bottom"
        },
        "tooltip": {
          "mode": "multi",
          "sort": "desc"
        }
      },
      "repeat": "query0",
      "repeatDirection": "h",
      "targets": [
        {
          "datasource": {
            "type": "mysql",
            "uid": "VGpHWV5Vk"
          },
          "format": "time_series",
          "group": [],
          "metricColumn": "none",
          "rawQuery": true,
          "rawSql": "SELECT\n`ac_key_LHCb-Production_Pilot_GridStatus`.`value`,\n`ac_bucket_LHCb-Production_Pilot`.`startTime` AS time,\nSUM(`ac_bucket_LHCb-Production_Pilot`.`entriesInBucket`) /  `ac_bucket_LHCb-Production_Pilot`.`bucketLength` * 3600 AS metric\nFROM\n`ac_bucket_LHCb-Production_Pilot`,\n`ac_key_LHCb-Production_Pilot_Site`,\n`ac_key_LHCb-Production_Pilot_GridStatus`\nWHERE\n$__unixEpochFilter(`ac_bucket_LHCb-Production_Pilot`.`startTime`)\nAND ( `ac_key_LHCb-Production_Pilot_Site`.`value` IN ($tier1) )\nAND `ac_bucket_LHCb-Production_Pilot`.`GridStatus` = `ac_key_LHCb-Production_Pilot_GridStatus`.`id`\nAND `ac_bucket_LHCb-Production_Pilot`.`Site` = `ac_key_LHCb-Production_Pilot_Site`.`id`\nGROUP BY\nstartTime,\n`ac_key_LHCb-Production_Pilot_GridStatus`.Value,\nbucketlength",
          "refId": "A",
          "select": [
            [
              {
                "params": [
                  "endTime"
                ],
                "type": "column"
              }
            ]
          ],
          "table": "ac_in_LHCb-Production_DataOperation",
          "timeColumn": "takenSince",
          "timeColumnType": "timestamp",
          "where": [
            {
              "name": "$__timeFilter",
              "params": [],
              "type": "macro"
            }
          ]
        }
      ],
      "title": "Pilot Status / T1",
      "transformations": [
        {
          "id": "renameByRegex",
          "options": {
            "regex": "metric ",
            "renamePattern": ""
          }
        }
      ],
      "type": "timeseries"
    },
    {
      "datasource": {
        "type": "mysql",
        "uid": "VGpHWV5Vk"
      },
      "fieldConfig": {
        "defaults": {
          "color": {
            "mode": "palette-classic"
          },
          "custom": {
            "axisLabel": "pilots / hour",
            "axisPlacement": "auto",
            "barAlignment": 0,
            "drawStyle": "line",
            "fillOpacity": 20,
            "gradientMode": "none",
            "hideFrom": {
              "legend": false,
              "tooltip": false,
              "viz": false
            },
            "lineInterpolation": "linear",
            "lineWidth": 1,
            "pointSize": 5,
            "scaleDistribution": {
              "type": "linear"
            },
            "showPoints": "auto",
            "spanNulls": false,
            "stacking": {
              "group": "A",
              "mode": "normal"
            },
            "thresholdsStyle": {
              "mode": "off"
            }
          },
          "mappings": [],
          "thresholds": {
            "mode": "absolute",
            "steps": [
              {
                "color": "green",
                "value": null
              },
              {
                "color": "red",
                "value": 80
              }
            ]
          },
          "unit": "si:"
        },
        "overrides": []
      },
      "gridPos": {
        "h": 10,
        "w": 12,
        "x": 12,
        "y": 0
      },
      "id": 7,
      "options": {
        "legend": {
          "calcs": [
            "max",
            "mean",
            "sum"
          ],
          "displayMode": "table",
          "placement": "bottom"
        },
        "tooltip": {
          "mode": "multi",
          "sort": "desc"
        }
      },
      "repeatDirection": "h",
      "targets": [
        {
          "datasource": {
            "type": "mysql",
            "uid": "VGpHWV5Vk"
          },
          "format": "time_series",
          "group": [],
          "metricColumn": "none",
          "rawQuery": true,
          "rawSql": "SELECT\n`ac_key_LHCb-Production_Pilot_GridStatus`.`value`,\n`ac_bucket_LHCb-Production_Pilot`.`startTime` AS time,\nSUM(`ac_bucket_LHCb-Production_Pilot`.`entriesInBucket`) /  `ac_bucket_LHCb-Production_Pilot`.`bucketLength` * 3600 AS metric\nFROM\n`ac_bucket_LHCb-Production_Pilot`,\n`ac_key_LHCb-Production_Pilot_Site`,\n`ac_key_LHCb-Production_Pilot_GridStatus`\nWHERE\n$__unixEpochFilter(`ac_bucket_LHCb-Production_Pilot`.`startTime`)\nAND ( `ac_key_LHCb-Production_Pilot_Site`.`value` IN (${tier2:raw}) )\nAND `ac_bucket_LHCb-Production_Pilot`.`GridStatus` = `ac_key_LHCb-Production_Pilot_GridStatus`.`id`\nAND `ac_bucket_LHCb-Production_Pilot`.`Site` = `ac_key_LHCb-Production_Pilot_Site`.`id`\nGROUP BY\nstartTime,\n`ac_key_LHCb-Production_Pilot_GridStatus`.Value,\nbucketlength",
          "refId": "A",
          "select": [
            [
              {
                "params": [
                  "endTime"
                ],
                "type": "column"
              }
            ]
          ],
          "table": "ac_in_LHCb-Production_DataOperation",
          "timeColumn": "takenSince",
          "timeColumnType": "timestamp",
          "where": [
            {
              "name": "$__timeFilter",
              "params": [],
              "type": "macro"
            }
          ]
        }
      ],
      "title": "Pilot Status / T2",
      "transformations": [
        {
          "id": "renameByRegex",
          "options": {
            "regex": "metric ",
            "renamePattern": ""
          }
        }
      ],
      "type": "timeseries"
    },
    {
      "datasource": {
        "type": "mysql",
        "uid": "VGpHWV5Vk"
      },
      "fieldConfig": {
        "defaults": {
          "color": {
            "mode": "palette-classic"
          },
          "custom": {
            "axisLabel": "pilots / hour",
            "axisPlacement": "auto",
            "barAlignment": 0,
            "drawStyle": "line",
            "fillOpacity": 20,
            "gradientMode": "none",
            "hideFrom": {
              "legend": false,
              "tooltip": false,
              "viz": false
            },
            "lineInterpolation": "linear",
            "lineWidth": 1,
            "pointSize": 5,
            "scaleDistribution": {
              "type": "linear"
            },
            "showPoints": "auto",
            "spanNulls": false,
            "stacking": {
              "group": "A",
              "mode": "normal"
            },
            "thresholdsStyle": {
              "mode": "off"
            }
          },
          "mappings": [],
          "thresholds": {
            "mode": "absolute",
            "steps": [
              {
                "color": "green",
                "value": null
              },
              {
                "color": "red",
                "value": 80
              }
            ]
          },
          "unit": "si:"
        },
        "overrides": []
      },
      "gridPos": {
        "h": 10,
        "w": 12,
        "x": 0,
        "y": 10
      },
      "id": 4,
      "options": {
        "legend": {
          "calcs": [
            "max",
            "mean",
            "sum"
          ],
          "displayMode": "table",
          "placement": "bottom",
          "sortBy": "Max",
          "sortDesc": true
        },
        "tooltip": {
          "mode": "multi",
          "sort": "desc"
        }
      },
      "targets": [
        {
          "datasource": {
            "type": "mysql",
            "uid": "VGpHWV5Vk"
          },
          "format": "time_series",
          "group": [],
          "metricColumn": "none",
          "rawQuery": true,
          "rawSql": "SELECT\n`ac_key_LHCb-Production_Pilot_Site`.`value`,\n`ac_bucket_LHCb-Production_Pilot`.`startTime` AS time,\nSUM(`ac_bucket_LHCb-Production_Pilot`.`entriesInBucket`) /  `ac_bucket_LHCb-Production_Pilot`.`bucketLength` * 3600 AS metric\nFROM\n`ac_bucket_LHCb-Production_Pilot`,\n`ac_key_LHCb-Production_Pilot_Site`,\n`ac_key_LHCb-Production_Pilot_GridStatus`\nWHERE\n$__unixEpochFilter(`ac_bucket_LHCb-Production_Pilot`.`startTime`)\nAND `ac_key_LHCb-Production_Pilot_GridStatus`.`value` = \"Aborted\"\nAND `ac_bucket_LHCb-Production_Pilot`.`GridStatus` = `ac_key_LHCb-Production_Pilot_GridStatus`.`id`\nAND `ac_bucket_LHCb-Production_Pilot`.`Site` = `ac_key_LHCb-Production_Pilot_Site`.`id`\nGROUP BY\nstartTime,\n`ac_key_LHCb-Production_Pilot_Site`.value,\nbucketlength",
          "refId": "A",
          "select": [
            [
              {
                "params": [
                  "endTime"
                ],
                "type": "column"
              }
            ]
          ],
          "table": "ac_in_LHCb-Production_DataOperation",
          "timeColumn": "takenSince",
          "timeColumnType": "timestamp",
          "where": [
            {
              "name": "$__timeFilter",
              "params": [],
              "type": "macro"
            }
          ]
        }
      ],
      "title": "Aborted Pilots / Site",
      "transformations": [
        {
          "id": "renameByRegex",
          "options": {
            "regex": "metric ",
            "renamePattern": ""
          }
        }
      ],
      "type": "timeseries"
    },
    {
      "datasource": {
        "type": "mysql",
        "uid": "VGpHWV5Vk"
      },
      "fieldConfig": {
        "defaults": {
          "color": {
            "mode": "palette-classic"
          },
          "custom": {
            "axisLabel": "pilots / hour",
            "axisPlacement": "auto",
            "barAlignment": 0,
            "drawStyle": "line",
            "fillOpacity": 20,
            "gradientMode": "none",
            "hideFrom": {
              "legend": false,
              "tooltip": false,
              "viz": false
            },
            "lineInterpolation": "linear",
            "lineWidth": 1,
            "pointSize": 5,
            "scaleDistribution": {
              "type": "linear"
            },
            "showPoints": "auto",
            "spanNulls": false,
            "stacking": {
              "group": "A",
              "mode": "normal"
            },
            "thresholdsStyle": {
              "mode": "off"
            }
          },
          "mappings": [],
          "thresholds": {
            "mode": "absolute",
            "steps": [
              {
                "color": "green",
                "value": null
              },
              {
                "color": "red",
                "value": 80
              }
            ]
          },
          "unit": "si:"
        },
        "overrides": []
      },
      "gridPos": {
        "h": 10,
        "w": 12,
        "x": 12,
        "y": 10
      },
      "id": 6,
      "options": {
        "legend": {
          "calcs": [
            "max",
            "mean",
            "sum"
          ],
          "displayMode": "table",
          "placement": "bottom",
          "sortBy": "Max",
          "sortDesc": true
        },
        "tooltip": {
          "mode": "multi",
          "sort": "desc"
        }
      },
      "targets": [
        {
          "datasource": {
            "type": "mysql",
            "uid": "VGpHWV5Vk"
          },
          "format": "time_series",
          "group": [],
          "metricColumn": "none",
          "rawQuery": true,
          "rawSql": "SELECT\n`ac_key_LHCb-Production_Pilot_Site`.`value`,\n`ac_bucket_LHCb-Production_Pilot`.`startTime` AS time,\nSUM(`ac_bucket_LHCb-Production_Pilot`.`entriesInBucket`) /  `ac_bucket_LHCb-Production_Pilot`.`bucketLength` * 3600 AS metric\nFROM\n`ac_bucket_LHCb-Production_Pilot`,\n`ac_key_LHCb-Production_Pilot_Site`,\n`ac_key_LHCb-Production_Pilot_GridStatus`\nWHERE\n$__unixEpochFilter(`ac_bucket_LHCb-Production_Pilot`.`startTime`)\nAND `ac_key_LHCb-Production_Pilot_GridStatus`.`value` = \"Failed\"\nAND `ac_bucket_LHCb-Production_Pilot`.`GridStatus` = `ac_key_LHCb-Production_Pilot_GridStatus`.`id`\nAND `ac_bucket_LHCb-Production_Pilot`.`Site` = `ac_key_LHCb-Production_Pilot_Site`.`id`\nGROUP BY\nstartTime,\n`ac_key_LHCb-Production_Pilot_Site`.value,\nbucketlength",
          "refId": "A",
          "select": [
            [
              {
                "params": [
                  "endTime"
                ],
                "type": "column"
              }
            ]
          ],
          "table": "ac_in_LHCb-Production_DataOperation",
          "timeColumn": "takenSince",
          "timeColumnType": "timestamp",
          "where": [
            {
              "name": "$__timeFilter",
              "params": [],
              "type": "macro"
            }
          ]
        }
      ],
      "title": "Failed Pilots / Site",
      "transformations": [
        {
          "id": "renameByRegex",
          "options": {
            "regex": "metric ",
            "renamePattern": ""
          }
        }
      ],
      "type": "timeseries"
    }
  ],
  "refresh": false,
  "schemaVersion": 36,
  "style": "dark",
  "tags": [],
  "templating": {
    "list": [
      {
        "hide": 2,
        "label": "tier1",
        "name": "tier1",
        "query": "\"LCG.CERN.ch\", \"LCG.CERN.cern\", \"LCG.CNAF.it\", \"LCG.GRIDKA.de\", \"LCG.IN2P3.fr\", \"LCG.PIC.es\", \"LCG.RAL.uk\", \"LCG.SARA.nl\", \"LCG.NIKHEF.nl\"",
        "skipUrlSync": false,
        "type": "constant"
      },
      {
        "current": {
          "selected": true,
          "text": [
            "All"
          ],
          "value": [
            "$__all"
          ]
        },
        "datasource": {
          "type": "mysql",
          "uid": "VGpHWV5Vk"
        },
        "definition": "SELECT\nCONCAT('\"', value, '\"')\nFROM `ac_key_LHCb-Production_Job_Site`\nWHERE value not in (\"LCG.CERN.ch\", \"LCG.CNAF.it\", \"LCG.GRIDKA.de\", \"LCG.IN2P3.fr\", \"LCG.NIKHEF.nl\", \"LCG.PIC.es\", \"LCG.RAL.uk\", \"LCG.SARA.nl\", \"LCG.CERN.cern\", \"LCG.RRCKI.ru\", \"LCG.Bejing.cn\", \"LCG.DESYHH.de\", \"LCG.IHEP.ru\", \"LCG.MIT.us\", \"LCG.NCBJ-CIS.pl\", \"VAC.UKI-LT2-RHUL.uk\", \"ARC.Bristol.uk\", \"ARC.Durham.uk\", \"ARC.Oxford.uk\", \"ARC.RAL.uk\", \"ARC.RALPP.uk\", \"BOINC.CERN.ch\", \"BOINC.World.org\", \"CLOUD.Azure.ch\", \"CLOUD.CERN-Testing.ch\", \"CLOUD.CERN-dev.cern\", \"CLOUD.CERN.ch\", \"CLOUD.CERNMP.ch\", \"CLOUD.Cambridge.uk\", \"CLOUD.DBCE-CLOUDATA.fr\", \"CLOUD.DBCE-Ultimum.cz\", \"CLOUD.DBCE-iNNOVO.de\", \"CLOUD.DBCE.de\", \"CLOUD.EGI.eu\", \"CLOUD.GOOGLE.com\", \"CLOUD.GOOGLE.us\", \"CLOUD.Manchester.uk\", \"CLOUD.RAL.uk\", \"DIRAC.BOINC.ch\", \"DIRAC.CINECAM100.it\", \"DIRAC.Client.ch\", \"DIRAC.Client.de\", \"DIRAC.Client.es\", \"DIRAC.Client.fr\", \"DIRAC.Client.it\", \"DIRAC.Client.nl\", \"DIRAC.Client.pl\", \"DIRAC.CLIENT.net\", \"DIRAC.Client.uk\", \"DIRAC.Client.zone\", \"DIRAC.HLTFarm.lhcb\", \"DIRAC.Hamster.ch\", \"DIRAC.Lancaster.uk\", \"DIRAC.MACCHPC.br\", \"DIRAC.Manchester.uk\", \"DIRAC.MareNostrum.es\", \"DIRAC.Monash.au\", \"DIRAC.NERSC.us\", \"DIRAC.OSC.us\", \"DIRAC.Oka.ru\", \"DIRAC.Oxford.uk\", \"DIRAC.RAL.uk\", \"DIRAC.SDumont.br\", \"DIRAC.Sibir.ru\", \"DIRAC.Syracuse.us\", \"DIRAC.Test.ch\", \"DIRAC.UKI-LT2-IC-HEP.uk\", \"DIRAC.UZH.ch\", \"DIRAC.YANDEX-SKYGRID.ru\", \"DIRAC.Zurich.ch\", \"Group.CERN.cern\", \"Group.NCBJ.pl\", \"Group.RRCKI.ru\", \"LCG.Aachen.de\", \"LCG.Azure.cern\", \"LCG.BEER.cern\", \"LCG.BariRECAS.it\", \"LCG.CERN6.cern\", \"LCG.CHTC.us\", \"LCG.CINECA.it\", \"LCG.CSCS-HPC.ch\", \"LCG.DESYZN.de\", \"LCG.IHEP.cn\", \"LCG.NapoliRECAS.it\", \"LCG.Oracle.cern\", \"LCG.PIC6.es\", \"LCG.RHEA.cern\", \"LCG.SAMPA.br\", \"LCG.T-Systems.cern\", \"MultipleInput\", \"Unknown\", \"VAC.Cambridge.uk\", \"VAC.Lancaster.uk\", \"VAC.Manchester-dev.uk\", \"lbvobox105.cern.ch\", \"lbvobox19.cern.ch\", \"lbvobox308.cern.ch\")",
        "hide": 0,
        "includeAll": true,
        "label": "tier2",
        "multi": true,
        "name": "tier2",
        "options": [],
        "query": "SELECT\nCONCAT('\"', value, '\"')\nFROM `ac_key_LHCb-Production_Job_Site`\nWHERE value not in (\"LCG.CERN.ch\", \"LCG.CNAF.it\", \"LCG.GRIDKA.de\", \"LCG.IN2P3.fr\", \"LCG.NIKHEF.nl\", \"LCG.PIC.es\", \"LCG.RAL.uk\", \"LCG.SARA.nl\", \"LCG.CERN.cern\", \"LCG.RRCKI.ru\", \"LCG.Bejing.cn\", \"LCG.DESYHH.de\", \"LCG.IHEP.ru\", \"LCG.MIT.us\", \"LCG.NCBJ-CIS.pl\", \"VAC.UKI-LT2-RHUL.uk\", \"ARC.Bristol.uk\", \"ARC.Durham.uk\", \"ARC.Oxford.uk\", \"ARC.RAL.uk\", \"ARC.RALPP.uk\", \"BOINC.CERN.ch\", \"BOINC.World.org\", \"CLOUD.Azure.ch\", \"CLOUD.CERN-Testing.ch\", \"CLOUD.CERN-dev.cern\", \"CLOUD.CERN.ch\", \"CLOUD.CERNMP.ch\", \"CLOUD.Cambridge.uk\", \"CLOUD.DBCE-CLOUDATA.fr\", \"CLOUD.DBCE-Ultimum.cz\", \"CLOUD.DBCE-iNNOVO.de\", \"CLOUD.DBCE.de\", \"CLOUD.EGI.eu\", \"CLOUD.GOOGLE.com\", \"CLOUD.GOOGLE.us\", \"CLOUD.Manchester.uk\", \"CLOUD.RAL.uk\", \"DIRAC.BOINC.ch\", \"DIRAC.CINECAM100.it\", \"DIRAC.Client.ch\", \"DIRAC.Client.de\", \"DIRAC.Client.es\", \"DIRAC.Client.fr\", \"DIRAC.Client.it\", \"DIRAC.Client.nl\", \"DIRAC.Client.pl\", \"DIRAC.CLIENT.net\", \"DIRAC.Client.uk\", \"DIRAC.Client.zone\", \"DIRAC.HLTFarm.lhcb\", \"DIRAC.Hamster.ch\", \"DIRAC.Lancaster.uk\", \"DIRAC.MACCHPC.br\", \"DIRAC.Manchester.uk\", \"DIRAC.MareNostrum.es\", \"DIRAC.Monash.au\", \"DIRAC.NERSC.us\", \"DIRAC.OSC.us\", \"DIRAC.Oka.ru\", \"DIRAC.Oxford.uk\", \"DIRAC.RAL.uk\", \"DIRAC.SDumont.br\", \"DIRAC.Sibir.ru\", \"DIRAC.Syracuse.us\", \"DIRAC.Test.ch\", \"DIRAC.UKI-LT2-IC-HEP.uk\", \"DIRAC.UZH.ch\", \"DIRAC.YANDEX-SKYGRID.ru\", \"DIRAC.Zurich.ch\", \"Group.CERN.cern\", \"Group.NCBJ.pl\", \"Group.RRCKI.ru\", \"LCG.Aachen.de\", \"LCG.Azure.cern\", \"LCG.BEER.cern\", \"LCG.BariRECAS.it\", \"LCG.CERN6.cern\", \"LCG.CHTC.us\", \"LCG.CINECA.it\", \"LCG.CSCS-HPC.ch\", \"LCG.DESYZN.de\", \"LCG.IHEP.cn\", \"LCG.NapoliRECAS.it\", \"LCG.Oracle.cern\", \"LCG.PIC6.es\", \"LCG.RHEA.cern\", \"LCG.SAMPA.br\", \"LCG.T-Systems.cern\", \"MultipleInput\", \"Unknown\", \"VAC.Cambridge.uk\", \"VAC.Lancaster.uk\", \"VAC.Manchester-dev.uk\", \"lbvobox105.cern.ch\", \"lbvobox19.cern.ch\", \"lbvobox308.cern.ch\")",
        "refresh": 1,
        "regex": "",
        "skipUrlSync": false,
        "sort": 0,
        "type": "query"
      }
    ]
  },
  "time": {
    "from": "now-24h",
    "to": "now"
  },
  "timepicker": {},
  "timezone": "",
  "title": "Pilot Jobs Status",
  "uid": "Hfdgmcx4z",
  "version": 26,
  "weekStart": ""
}
