[
  {
    "_id": "lhcb-dashboard-2",
    "_type": "dashboard",
    "_source": {
      "title": "Errors per production",
      "hits": 0,
      "description": "",
      "panelsJSON": "[{\"gridData\":{\"h\":5,\"i\":\"1\",\"w\":6,\"x\":6,\"y\":6},\"id\":\"c0676170-8a0d-11ea-8f8c-c10aac8009dd\",\"panelIndex\":\"1\",\"type\":\"visualization\",\"version\":\"6.2.4\"},{\"gridData\":{\"h\":6,\"i\":\"2\",\"w\":6,\"x\":0,\"y\":5},\"id\":\"4e8246b0-8a0d-11ea-8f8c-c10aac8009dd\",\"panelIndex\":\"2\",\"type\":\"visualization\",\"version\":\"6.2.4\"},{\"gridData\":{\"h\":5,\"i\":\"3\",\"w\":6,\"x\":0,\"y\":0},\"id\":\"a4353a10-8a06-11ea-8f8c-c10aac8009dd\",\"panelIndex\":\"3\",\"type\":\"visualization\",\"version\":\"6.2.4\"},{\"gridData\":{\"h\":3,\"i\":\"4\",\"w\":6,\"x\":6,\"y\":0},\"id\":\"21d967e0-8a0f-11ea-8f8c-c10aac8009dd\",\"panelIndex\":\"4\",\"type\":\"visualization\",\"version\":\"6.2.4\"},{\"gridData\":{\"h\":3,\"i\":\"5\",\"w\":6,\"x\":6,\"y\":3},\"id\":\"579cb7e0-8a1b-11ea-bef2-1d663f7888cc\",\"panelIndex\":\"5\",\"type\":\"visualization\",\"version\":\"6.2.4\"}]",
      "optionsJSON": "{\"darkTheme\":false,\"hidePanelTitles\":false,\"useMargins\":true}",
      "version": 1,
      "timeRestore": false,
      "kibanaSavedObjectMeta": {
        "searchSourceJSON": "{\"query\":{\"language\":\"lucene\",\"query\":\"\"},\"filter\":[{\"$state\":{\"store\":\"appState\"},\"meta\":{\"alias\":null,\"controlledBy\":\"1588160680809\",\"disabled\":false,\"index\":\"e0cc1ec0-496c-11e9-97b4-bda41e0e0b3d\",\"key\":\"_index\",\"negate\":false,\"params\":[\"lhcb-mcstats-00095697\",\"lhcb-mcstats-00096481\",\"lhcb-mcstats-00096484\",\"lhcb-mcstats-00096485\",\"lhcb-mcstats-00095706\",\"lhcb-mcstats-00096482\",\"lhcb-mcstats-00096487\",\"lhcb-mcstats-00096488\",\"lhcb-mcstats-00096490\",\"lhcb-mcstats-00096491\",\"lhcb-mcstats-00096865\",\"lhcb-mcstats-00096868\",\"lhcb-mcstats-00096877\",\"lhcb-mcstats-00096883\",\"lhcb-mcstats-00096892\",\"lhcb-mcstats-00096901\",\"lhcb-mcstats-00096907\",\"lhcb-mcstats-00096910\",\"lhcb-mcstats-00096998\",\"lhcb-mcstats-00097001\"],\"type\":\"phrases\",\"value\":\"lhcb-mcstats-00095697, lhcb-mcstats-00096481, lhcb-mcstats-00096484, lhcb-mcstats-00096485, lhcb-mcstats-00095706, lhcb-mcstats-00096482, lhcb-mcstats-00096487, lhcb-mcstats-00096488, lhcb-mcstats-00096490, lhcb-mcstats-00096491, lhcb-mcstats-00096865, lhcb-mcstats-00096868, lhcb-mcstats-00096877, lhcb-mcstats-00096883, lhcb-mcstats-00096892, lhcb-mcstats-00096901, lhcb-mcstats-00096907, lhcb-mcstats-00096910, lhcb-mcstats-00096998, lhcb-mcstats-00097001\"},\"query\":{\"bool\":{\"minimum_should_match\":1,\"should\":[{\"match_phrase\":{\"_index\":\"lhcb-mcstats-00095697\"}},{\"match_phrase\":{\"_index\":\"lhcb-mcstats-00096481\"}},{\"match_phrase\":{\"_index\":\"lhcb-mcstats-00096484\"}},{\"match_phrase\":{\"_index\":\"lhcb-mcstats-00096485\"}},{\"match_phrase\":{\"_index\":\"lhcb-mcstats-00095706\"}},{\"match_phrase\":{\"_index\":\"lhcb-mcstats-00096482\"}},{\"match_phrase\":{\"_index\":\"lhcb-mcstats-00096487\"}},{\"match_phrase\":{\"_index\":\"lhcb-mcstats-00096488\"}},{\"match_phrase\":{\"_index\":\"lhcb-mcstats-00096490\"}},{\"match_phrase\":{\"_index\":\"lhcb-mcstats-00096491\"}},{\"match_phrase\":{\"_index\":\"lhcb-mcstats-00096865\"}},{\"match_phrase\":{\"_index\":\"lhcb-mcstats-00096868\"}},{\"match_phrase\":{\"_index\":\"lhcb-mcstats-00096877\"}},{\"match_phrase\":{\"_index\":\"lhcb-mcstats-00096883\"}},{\"match_phrase\":{\"_index\":\"lhcb-mcstats-00096892\"}},{\"match_phrase\":{\"_index\":\"lhcb-mcstats-00096901\"}},{\"match_phrase\":{\"_index\":\"lhcb-mcstats-00096907\"}},{\"match_phrase\":{\"_index\":\"lhcb-mcstats-00096910\"}},{\"match_phrase\":{\"_index\":\"lhcb-mcstats-00096998\"}},{\"match_phrase\":{\"_index\":\"lhcb-mcstats-00097001\"}}]}}}],\"highlightAll\":true,\"version\":true}"
      }
    }
  }
]
